In file included from ./string_map.h:127,
                 from ../../../../../taller4/string_map_tests.cpp:2:
./string_map.hpp: In instantiation of ‘bool string_map<T>::empty() const [with T = int]’:
../../../../../taller4/string_map_tests.cpp:7:5:   required from here
./string_map.hpp:110:21: warning: unused variable ‘i’ [-Wunused-variable]
  110 |          for (Nodo* i: n->siguientes) {
      |                     ^
./string_map.hpp:104:11: warning: unused variable ‘sinDefiniciones’ [-Wunused-variable]
  104 |      bool sinDefiniciones = true;
      |           ^~~~~~~~~~~~~~~
./string_map.hpp: In instantiation of ‘void string_map<T>::insert(const std::pair<std::__cxx11::basic_string<char>, T>&) [with T = int]’:
../../../../../taller4/string_map_tests.cpp:13:21:   required from here
./string_map.hpp:159:14: warning: comparison of integer expressions of different signedness: ‘int’ and ‘std::__cxx11::basic_string<char>::size_type’ {aka ‘long unsigned int’} [-Wsign-compare]
  159 |     while (i < palabra.size()){
      |            ~~^~~~~~~~~~~~~~~~
./string_map.hpp: In instantiation of ‘void string_map<T>::insert(const std::pair<std::__cxx11::basic_string<char>, T>&) [with T = string_map<int>]’:
../../../../../taller4/string_map_tests.cpp:153:21:   required from here
./string_map.hpp:159:14: warning: comparison of integer expressions of different signedness: ‘int’ and ‘std::__cxx11::basic_string<char>::size_type’ {aka ‘long unsigned int’} [-Wsign-compare]
In file included from ../../../../../taller4/string_map_tests.cpp:2:
./string_map.h: In instantiation of ‘string_map<T>::Nodo::Nodo() [with T = int]’:
./string_map.hpp:153:19:   required from ‘void string_map<T>::insert(const std::pair<std::__cxx11::basic_string<char>, T>&) [with T = int]’
../../../../../taller4/string_map_tests.cpp:13:21:   required from here
./string_map.h:86:12: warning: ‘string_map<int>::Nodo::definicion’ will be initialized after [-Wreorder]
   86 |         T* definicion;
      |            ^~~~~~~~~~
./string_map.h:85:23: warning:   ‘std::vector<string_map<int>::Nodo*, std::allocator<string_map<int>::Nodo*> > string_map<int>::Nodo::siguientes’ [-Wreorder]
   85 |         vector<Nodo*> siguientes;
      |                       ^~~~~~~~~~
./string_map.h:84:9: warning:   when initialized here [-Wreorder]
   84 |         Nodo():definicion(nullptr),siguientes(256, nullptr){}
      |         ^~~~
./string_map.h: In instantiation of ‘string_map<T>::Nodo::Nodo() [with T = string_map<int>]’:
./string_map.hpp:153:19:   required from ‘void string_map<T>::insert(const std::pair<std::__cxx11::basic_string<char>, T>&) [with T = string_map<int>]’
../../../../../taller4/string_map_tests.cpp:153:21:   required from here
./string_map.h:86:12: warning: ‘string_map<string_map<int> >::Nodo::definicion’ will be initialized after [-Wreorder]
   86 |         T* definicion;
      |            ^~~~~~~~~~
./string_map.h:85:23: warning:   ‘std::vector<string_map<string_map<int> >::Nodo*, std::allocator<string_map<string_map<int> >::Nodo*> > string_map<string_map<int> >::Nodo::siguientes’ [-Wreorder]
   85 |         vector<Nodo*> siguientes;
      |                       ^~~~~~~~~~
./string_map.h:84:9: warning:   when initialized here [-Wreorder]
   84 |         Nodo():definicion(nullptr),siguientes(256, nullptr){}
      |         ^~~~
In file included from ./string_map.h:127,
                 from ../../../../../taller4/string_map_tests.cpp:2:
./string_map.hpp: In member function ‘int string_map<T>::count(const string&) const [with T = int]’:
./string_map.hpp:59:1: warning: control reaches end of non-void function [-Wreturn-type]
   59 | }
      | ^
